,Width##LENGTH##INCHES,Height##LENGTH##INCHES,Designation##OTHER##,Type Comments##OTHER##,. . Lights Wide##OTHER##,. . Lights High##OTHER##,Fractional Lights Wide##OTHER##,Fractional Lights High##OTHER##,FlankerWidth##LENGTH##INCHES
"71-1/2"" x 11-1/2""A",71.5,11.5,100TFP16-3010-16,Fibrex Transom Window,2,1,2,1,15.34375
"77-1/2"" x 11-1/2""A",77.5,11.5,100TFP16-3610-16,Fibrex Transom Window,2,1,2,1,15.34375
"83-1/2"" x 11-1/2""A",83.5,11.5,100TFP16-4010-16,Fibrex Transom Window,2,1,2,1,15.34375
"89-1/2"" x 11-1/2""A",89.5,11.5,100TFP16-4610-16,Fibrex Transom Window,2,1,2,1,15.34375
"95-1/2"" x 11-1/2""A",95.5,11.5,100TFP16-5010-16,Fibrex Transom Window,2,1,2,1,15.34375
"101-1/2"" x 11-1/2""A",101.5,11.5,100TFP16-5610-16,Fibrex Transom Window,2,1,2,1,15.34375
"107-1/2"" x 11-1/2""A",107.5,11.5,100TFP16-6010-16,Fibrex Transom Window,2,1,2,1,15.34375
"71-1/2"" x 17-1/2""A",71.5,17.5,100TFP16-3016-16,Fibrex Transom Window,2,2,2,2,15.34375
"77-1/2"" x 17-1/2""A",77.5,17.5,100TFP16-3616-16,Fibrex Transom Window,2,2,2,2,15.34375
"83-1/2"" x 17-1/2""A",83.5,17.5,100TFP16-4016-16,Fibrex Transom Window,2,2,2,2,15.34375
"89-1/2"" x 17-1/2""A",89.5,17.5,100TFP16-4616-16,Fibrex Transom Window,2,2,2,2,15.34375
"95-1/2"" x 17-1/2""A",95.5,17.5,100TFP16-5016-16,Fibrex Transom Window,2,2,2,2,15.34375
"101-1/2"" x 17-1/2""A",101.5,17.5,100TFP16-5616-16,Fibrex Transom Window,2,2,2,2,15.34375
"107-1/2"" x 17-1/2""A",107.5,17.5,100TFP16-6016-16,Fibrex Transom Window,2,2,2,2,15.34375
"71-1/2"" x 23-1/2""A",71.5,23.5,100TFP16-3020-16,Fibrex Transom Window,2,2,2,2,15.34375
"77-1/2"" x 23-1/2""A",77.5,23.5,100TFP16-3620-16,Fibrex Transom Window,2,2,2,2,15.34375
"83-1/2"" x 23-1/2""A",83.5,23.5,100TFP16-4020-16,Fibrex Transom Window,2,2,2,2,15.34375
"89-1/2"" x 23-1/2""A",89.5,23.5,100TFP16-4620-16,Fibrex Transom Window,2,2,2,2,15.34375
"95-1/2"" x 23-1/2""A",95.5,23.5,100TFP16-5020-16,Fibrex Transom Window,2,2,2,2,15.34375
"101-1/2"" x 23-1/2""A",101.5,23.5,100TFP16-5620-16,Fibrex Transom Window,2,2,2,2,15.34375
"107-1/2"" x 23-1/2""A",107.5,23.5,100TFP16-6020-16,Fibrex Transom Window,2,2,2,2,15.34375
"83-1/2"" x 11-1/2""B",83.5,11.5,100TFP20-3010-20,Fibrex Transom Window,2,1,2,1,21.34375
"89-1/2"" x 11-1/2""B",89.5,11.5,100TFP20-3610-20,Fibrex Transom Window,2,1,2,1,21.34375
"95-1/2"" x 11-1/2""B",95.5,11.5,100TFP20-4010-20,Fibrex Transom Window,2,1,2,1,21.34375
"101-1/2"" x 11-1/2""B",101.5,11.5,100TFP20-4610-20,Fibrex Transom Window,2,1,2,1,21.34375
"107-1/2"" x 11-1/2""B",107.5,11.5,100TFP20-5010-20,Fibrex Transom Window,2,1,2,1,21.34375
"113-1/2"" x 11-1/2""B",113.5,11.5,100TFP20-5610-20,Fibrex Transom Window,2,1,2,1,21.34375
"119-1/2"" x 11-1/2""B",119.5,11.5,100TFP20-6010-20,Fibrex Transom Window,2,1,2,1,21.34375
"83-1/2"" x 17-1/2""B",83.5,17.5,100TFP20-3016-20,Fibrex Transom Window,2,2,2,2,21.34375
"89-1/2"" x 17-1/2""B",89.5,17.5,100TFP20-3616-20,Fibrex Transom Window,2,2,2,2,21.34375
"95-1/2"" x 17-1/2""B",95.5,17.5,100TFP20-4016-20,Fibrex Transom Window,2,2,2,2,21.34375
"101-1/2"" x 17-1/2""B",101.5,17.5,100TFP20-4616-20,Fibrex Transom Window,2,2,2,2,21.34375
"107-1/2"" x 17-1/2""B",107.5,17.5,100TFP20-5016-20,Fibrex Transom Window,2,2,2,2,21.34375
"113-1/2"" x 17-1/2""B",113.5,17.5,100TFP20-5616-20,Fibrex Transom Window,2,2,2,2,21.34375
"119-1/2"" x 17-1/2""B",119.5,17.5,100TFP20-6016-20,Fibrex Transom Window,2,2,2,2,21.34375
"83-1/2"" x 23-1/2""B",83.5,23.5,100TFP20-3020-20,Fibrex Transom Window,2,2,2,2,21.34375
"89-1/2"" x 23-1/2""B",89.5,23.5,100TFP20-3620-20,Fibrex Transom Window,2,2,2,2,21.34375
"95-1/2"" x 23-1/2""B",95.5,23.5,100TFP20-4020-20,Fibrex Transom Window,2,2,2,2,21.34375
"101-1/2"" x 23-1/2""B",101.5,23.5,100TFP20-4620-20,Fibrex Transom Window,2,2,2,2,21.34375
"107-1/2"" x 23-1/2""B",107.5,23.5,100TFP20-5020-20,Fibrex Transom Window,2,2,2,2,21.34375
"113-1/2"" x 23-1/2""B",113.5,23.5,100TFP20-5620-20,Fibrex Transom Window,2,2,2,2,21.34375
"119-1/2"" x 23-1/2""B",119.5,23.5,100TFP20-6020-20,Fibrex Transom Window,2,2,2,2,21.34375
"95-1/2"" x 11-1/2""C",95.5,11.5,100TFP26-3010-26,Fibrex Transom Window,3,1,3,1,27.34375
"101-1/2"" x 11-1/2""C",101.5,11.5,100TFP26-3610-26,Fibrex Transom Window,3,1,3,1,27.34375
"107-1/2"" x 11-1/2""C",107.5,11.5,100TFP26-4010-26,Fibrex Transom Window,3,1,3,1,27.34375
"113-1/2"" x 11-1/2""C",113.5,11.5,100TFP26-4610-26,Fibrex Transom Window,3,1,3,1,27.34375
"119-1/2"" x 11-1/2""C",119.5,11.5,100TFP26-5010-26,Fibrex Transom Window,3,1,3,1,27.34375
"125-1/2"" x 11-1/2""C",125.5,11.5,100TFP26-5610-26,Fibrex Transom Window,3,1,3,1,27.34375
"131-1/2"" x 11-1/2""C",131.5,11.5,100TFP26-6010-26,Fibrex Transom Window,3,1,3,1,27.34375
"95-1/2"" x 17-1/2""C",95.5,17.5,100TFP26-3016-26,Fibrex Transom Window,3,2,3,2,27.34375
"101-1/2"" x 17-1/2""C",101.5,17.5,100TFP26-3616-26,Fibrex Transom Window,3,2,3,2,27.34375
"107-1/2"" x 17-1/2""C",107.5,17.5,100TFP26-4016-26,Fibrex Transom Window,3,2,3,2,27.34375
"113-1/2"" x 17-1/2""C",113.5,17.5,100TFP26-4616-26,Fibrex Transom Window,3,2,3,2,27.34375
"119-1/2"" x 17-1/2""C",119.5,17.5,100TFP26-5016-26,Fibrex Transom Window,3,2,3,2,27.34375
"125-1/2"" x 17-1/2""C",125.5,17.5,100TFP26-5616-26,Fibrex Transom Window,3,2,3,2,27.34375
"131-1/2"" x 17-1/2""C",131.5,17.5,100TFP26-6016-26,Fibrex Transom Window,3,2,3,2,27.34375
"95-1/2"" x 23-1/2""C",95.5,23.5,100TFP26-3020-26,Fibrex Transom Window,3,2,3,2,27.34375
"101-1/2"" x 23-1/2""C",101.5,23.5,100TFP26-3620-26,Fibrex Transom Window,3,2,3,2,27.34375
"107-1/2"" x 23-1/2""C",107.5,23.5,100TFP26-4020-26,Fibrex Transom Window,3,2,3,2,27.34375
"113-1/2"" x 23-1/2""C",113.5,23.5,100TFP26-4620-26,Fibrex Transom Window,3,2,3,2,27.34375
"119-1/2"" x 23-1/2""C",119.5,23.5,100TFP26-5020-26,Fibrex Transom Window,3,2,3,2,27.34375
"125-1/2"" x 23-1/2""C",125.5,23.5,100TFP26-5620-26,Fibrex Transom Window,3,2,3,2,27.34375
"131-1/2"" x 23-1/2""C",131.5,23.5,100TFP26-6020-26,Fibrex Transom Window,3,2,3,2,27.34375
"107-1/2"" x 11-1/2""D",107.5,11.5,100TFP30-3010-30,Fibrex Transom Window,3,1,3,1,33.34375
"113-1/2"" x 11-1/2""D",113.5,11.5,100TFP30-3610-30,Fibrex Transom Window,3,1,3,1,33.34375
"119-1/2"" x 11-1/2""D",119.5,11.5,100TFP30-4010-30,Fibrex Transom Window,3,1,3,1,33.34375
"125-1/2"" x 11-1/2""D",125.5,11.5,100TFP30-4610-30,Fibrex Transom Window,3,1,3,1,33.34375
"131-1/2"" x 11-1/2""D",131.5,11.5,100TFP30-5010-30,Fibrex Transom Window,3,1,3,1,33.34375
"137-1/2"" x 11-1/2""D",137.5,11.5,100TFP30-5610-30,Fibrex Transom Window,3,1,3,1,33.34375
"143-1/2"" x 11-1/2""D",143.5,11.5,100TFP30-6010-30,Fibrex Transom Window,3,1,3,1,33.34375
"107-1/2"" x 17-1/2""D",107.5,17.5,100TFP30-3016-30,Fibrex Transom Window,3,2,3,2,33.34375
"113-1/2"" x 17-1/2""D",113.5,17.5,100TFP30-3616-30,Fibrex Transom Window,3,2,3,2,33.34375
"119-1/2"" x 17-1/2""D",119.5,17.5,100TFP30-4016-30,Fibrex Transom Window,3,2,3,2,33.34375
"125-1/2"" x 17-1/2""D",125.5,17.5,100TFP30-4616-30,Fibrex Transom Window,3,2,3,2,33.34375
"131-1/2"" x 17-1/2""D",131.5,17.5,100TFP30-5016-30,Fibrex Transom Window,3,2,3,2,33.34375
"137-1/2"" x 17-1/2""D",137.5,17.5,100TFP30-5616-30,Fibrex Transom Window,3,2,3,2,33.34375
"143-1/2"" x 17-1/2""D",143.5,17.5,100TFP30-6016-30,Fibrex Transom Window,3,2,3,2,33.34375
"107-1/2"" x 23-1/2""D",107.5,23.5,100TFP30-3020-30,Fibrex Transom Window,3,2,3,2,33.34375
"113-1/2"" x 23-1/2""D",113.5,23.5,100TFP30-3620-30,Fibrex Transom Window,3,2,3,2,33.34375
"119-1/2"" x 23-1/2""D",119.5,23.5,100TFP30-4020-30,Fibrex Transom Window,3,2,3,2,33.34375
"125-1/2"" x 23-1/2""D",125.5,23.5,100TFP30-4620-30,Fibrex Transom Window,3,2,3,2,33.34375
"131-1/2"" x 23-1/2""D",131.5,23.5,100TFP30-5020-30,Fibrex Transom Window,3,2,3,2,33.34375
"137-1/2"" x 23-1/2""D",137.5,23.5,100TFP30-5620-30,Fibrex Transom Window,3,2,3,2,33.34375
"143-1/2"" x 23-1/2""D",143.5,23.5,100TFP30-6020-30,Fibrex Transom Window,3,2,3,2,33.34375
